<?xml version="1.0" encoding="UTF-8"?>
<svg width="20px" height="20px" viewBox="0 0 20 20" version="1.1" xmlns="http://www.w3.org/2000/svg" xmlns:xlink="http://www.w3.org/1999/xlink">
    <!-- Generator: sketchtool 41.2 (35397) - http://www.bohemiancoding.com/sketch -->
    <title>436E9AF2-3E31-47BD-A58B-478D9919611E</title>
    <desc>Created with sketchtool.</desc>
    <defs>
        <rect id="path-1" x="0" y="4" width="20" height="20" rx="3"></rect>
        <mask id="mask-2" maskContentUnits="userSpaceOnUse" maskUnits="objectBoundingBox" x="0" y="0" width="20" height="20" fill="white">
            <use xlink:href="#path-1"></use>
        </mask>
    </defs>
    <g id="OperatorUI" stroke="none" stroke-width="1" fill="none" fill-rule="evenodd">
        <g id="Admin/Settings-(full)" transform="translate(-290.000000, -805.000000)">
            <g id="UI-elements/Checkbox-unchecked" transform="translate(290.000000, 801.000000)">
                <rect id="Rectangle-3" x="0" y="0" width="24" height="24"></rect>
                <use id="Select-Background-Copy-3" stroke="#979797" mask="url(#mask-2)" stroke-width="2" fill="#FFFFFF" fill-rule="evenodd" xlink:href="#path-1"></use>
            </g>
        </g>
    </g>
</svg>